Images/Day12/dump.vcd
$date
	Thu Sep 21 13:56:38 2023
$end
$version
	Icarus Verilog
$end
$timescale
	1ps
$end
$scope module vsdbabysoc_tb $end
$var reg 1 ! ENb_CP $end
$var reg 1 " ENb_VCO $end
$var reg 1 # REF $end
$var reg 1 $ VCO_IN $end
$var reg 1 % reset $end
$var real 1 & VREFH $end
$var real 1 ' VREFL $end
$var real 1 ( OUT $end
$scope module uut $end
$var wire 1 ! ENb_CP $end
$var wire 1 " ENb_VCO $end
$var wire 1 # REF $end
$var wire 1 $ VCO_IN $end
$var wire 1 ) VREFH $end
$var wire 1 % reset $end
$var wire 10 * RV_TO_DAC [9:0] $end
$var wire 1 + OUT $end
$var wire 1 , CLK $end
$scope module core1 $end
$var wire 32 - CPU_dmem_rd_data_a4 [31:0] $end
$var wire 1 . CPU_dmem_rd_en_a4 $end
$var wire 1 / CPU_dmem_wr_en_a4 $end
$var wire 1 0 CPU_funct3_valid_a1 $end
$var wire 1 1 CPU_funct7_valid_a1 $end
$var wire 32 2 CPU_instr_a1 [31:0] $end
$var wire 1 3 CPU_is_i_instr_a1 $end
$var wire 1 4 CPU_is_jump_a1 $end
$var wire 1 5 CPU_is_r_instr_a1 $end
$var wire 1 6 CPU_is_s_instr_a1 $end
$var wire 1 7 CPU_is_u_instr_a1 $end
$var wire 32 8 CPU_ld_data_a5 [31:0] $end
$var wire 1 9 CPU_rd_valid_a1 $end
$var wire 1 : CPU_reset_a0 $end
$var wire 32 ; CPU_rf_rd_data1_a2 [31:0] $end
$var wire 32 < CPU_rf_rd_data2_a2 [31:0] $end
$var wire 1 = CPU_rf_rd_en1_a2 $end
$var wire 1 > CPU_rf_rd_en2_a2 $end
$var wire 5 ? CPU_rf_rd_index1_a2 [4:0] $end
$var wire 5 @ CPU_rf_rd_index2_a2 [4:0] $end
$var wire 1 A CPU_rf_wr_en_a3 $end
$var wire 1 B CPU_rs1_valid_a1 $end
$var wire 1 C CPU_rs2_valid_a1 $end
$var wire 1 D CPU_valid_jump_a3 $end
$var wire 1 E CPU_valid_load_a3 $end
$var wire 1 F CPU_valid_taken_br_a3 $end
$var wire 1 % reset $end
$var wire 1 G clkP_CPU_rs2_valid_a2 $end
$var wire 1 H clkP_CPU_rs1_valid_a2 $end
$var wire 1 I clkP_CPU_rd_valid_a5 $end
$var wire 1 J clkP_CPU_rd_valid_a4 $end
$var wire 1 K clkP_CPU_rd_valid_a3 $end
$var wire 1 L clkP_CPU_rd_valid_a2 $end
$var wire 1 M clkP_CPU_dmem_rd_en_a5 $end
$var wire 1 , clk $end
$var wire 1 N CPU_valid_a3 $end
$var wire 1 O CPU_taken_br_a3 $end
$var wire 32 P CPU_src2_value_a2 [31:0] $end
$var wire 32 Q CPU_src1_value_a2 [31:0] $end
$var wire 1 R CPU_sltu_result_a3 $end
$var wire 1 S CPU_sltiu_result_a3 $end
$var wire 5 T CPU_rs2_a1 [4:0] $end
$var wire 5 U CPU_rs1_a1 [4:0] $end
$var wire 5 V CPU_rf_wr_index_a3 [4:0] $end
$var wire 32 W CPU_rf_wr_data_a3 [31:0] $end
$var wire 32 X CPU_result_a3 [31:0] $end
$var wire 5 Y CPU_rd_a1 [4:0] $end
$var wire 32 Z CPU_pc_a0 [31:0] $end
$var wire 7 [ CPU_opcode_a1 [6:0] $end
$var wire 32 \ CPU_jalr_tgt_pc_a2 [31:0] $end
$var wire 1 ] CPU_is_xori_a1 $end
$var wire 1 ^ CPU_is_xor_a1 $end
$var wire 1 _ CPU_is_sw_a1 $end
$var wire 1 ` CPU_is_sub_a1 $end
$var wire 1 a CPU_is_srli_a1 $end
$var wire 1 b CPU_is_srl_a1 $end
$var wire 1 c CPU_is_srai_a1 $end
$var wire 1 d CPU_is_sra_a1 $end
$var wire 1 e CPU_is_sltu_a1 $end
$var wire 1 f CPU_is_sltiu_a1 $end
$var wire 1 g CPU_is_slti_a1 $end
$var wire 1 h CPU_is_slt_a1 $end
$var wire 1 i CPU_is_slli_a1 $end
$var wire 1 j CPU_is_sll_a1 $end
$var wire 1 k CPU_is_sh_a1 $end
$var wire 1 l CPU_is_sb_a1 $end
$var wire 1 m CPU_is_ori_a1 $end
$var wire 1 n CPU_is_or_a1 $end
$var wire 1 o CPU_is_lui_a1 $end
$var wire 1 p CPU_is_load_a1 $end
$var wire 1 q CPU_is_jalr_a1 $end
$var wire 1 r CPU_is_jal_a1 $end
$var wire 1 s CPU_is_j_instr_a1 $end
$var wire 1 t CPU_is_bne_a1 $end
$var wire 1 u CPU_is_bltu_a1 $end
$var wire 1 v CPU_is_blt_a1 $end
$var wire 1 w CPU_is_bgeu_a1 $end
$var wire 1 x CPU_is_bge_a1 $end
$var wire 1 y CPU_is_beq_a1 $end
$var wire 1 z CPU_is_b_instr_a1 $end
$var wire 1 { CPU_is_auipc_a1 $end
$var wire 1 | CPU_is_andi_a1 $end
$var wire 1 } CPU_is_and_a1 $end
$var wire 1 ~ CPU_is_addi_a1 $end
$var wire 1 !" CPU_is_add_a1 $end
$var wire 32 "" CPU_inc_pc_a1 [31:0] $end
$var wire 32 #" CPU_imm_a1 [31:0] $end
$var wire 1 $" CPU_imem_rd_en_a0 $end
$var wire 32 %" CPU_imem_rd_data_a1 [31:0] $end
$var wire 32 &" CPU_imem_rd_addr_a0 [31:0] $end
$var wire 7 '" CPU_funct7_a1 [6:0] $end
$var wire 3 (" CPU_funct3_a1 [2:0] $end
$var wire 32 )" CPU_dmem_wr_data_a4 [31:0] $end
$var wire 4 *" CPU_dmem_addr_a4 [3:0] $end
$var wire 11 +" CPU_dec_bits_a1 [10:0] $end
$var wire 32 ," CPU_br_tgt_pc_a2 [31:0] $end
$var reg 32 -" CPU_br_tgt_pc_a3 [31:0] $end
$var reg 32 ." CPU_dmem_rd_data_a5 [31:0] $end
$var reg 32 /" CPU_imem_rd_addr_a1 [31:0] $end
$var reg 1 0" CPU_imem_rd_en_a1 $end
$var reg 32 1" CPU_imm_a2 [31:0] $end
$var reg 32 2" CPU_imm_a3 [31:0] $end
$var reg 32 3" CPU_inc_pc_a2 [31:0] $end
$var reg 32 4" CPU_inc_pc_a3 [31:0] $end
$var reg 1 5" CPU_is_add_a2 $end
$var reg 1 6" CPU_is_add_a3 $end
$var reg 1 7" CPU_is_addi_a2 $end
$var reg 1 8" CPU_is_addi_a3 $end
$var reg 1 9" CPU_is_and_a2 $end
$var reg 1 :" CPU_is_and_a3 $end
$var reg 1 ;" CPU_is_andi_a2 $end
$var reg 1 <" CPU_is_andi_a3 $end
$var reg 1 =" CPU_is_auipc_a2 $end
$var reg 1 >" CPU_is_auipc_a3 $end
$var reg 1 ?" CPU_is_beq_a2 $end
$var reg 1 @" CPU_is_beq_a3 $end
$var reg 1 A" CPU_is_beq_a4 $end
$var reg 1 B" CPU_is_beq_a5 $end
$var reg 1 C" CPU_is_bge_a2 $end
$var reg 1 D" CPU_is_bge_a3 $end
$var reg 1 E" CPU_is_bge_a4 $end
$var reg 1 F" CPU_is_bge_a5 $end
$var reg 1 G" CPU_is_bgeu_a2 $end
$var reg 1 H" CPU_is_bgeu_a3 $end
$var reg 1 I" CPU_is_bgeu_a4 $end
$var reg 1 J" CPU_is_bgeu_a5 $end
$var reg 1 K" CPU_is_blt_a2 $end
$var reg 1 L" CPU_is_blt_a3 $end
$var reg 1 M" CPU_is_blt_a4 $end
$var reg 1 N" CPU_is_blt_a5 $end
$var reg 1 O" CPU_is_bltu_a2 $end
$var reg 1 P" CPU_is_bltu_a3 $end
$var reg 1 Q" CPU_is_bltu_a4 $end
$var reg 1 R" CPU_is_bltu_a5 $end
$var reg 1 S" CPU_is_bne_a2 $end
$var reg 1 T" CPU_is_bne_a3 $end
$var reg 1 U" CPU_is_bne_a4 $end
$var reg 1 V" CPU_is_bne_a5 $end
$var reg 1 W" CPU_is_jal_a2 $end
$var reg 1 X" CPU_is_jal_a3 $end
$var reg 1 Y" CPU_is_jalr_a2 $end
$var reg 1 Z" CPU_is_jalr_a3 $end
$var reg 1 [" CPU_is_jump_a2 $end
$var reg 1 \" CPU_is_jump_a3 $end
$var reg 1 ]" CPU_is_load_a2 $end
$var reg 1 ^" CPU_is_load_a3 $end
$var reg 1 _" CPU_is_lui_a2 $end
$var reg 1 `" CPU_is_lui_a3 $end
$var reg 1 a" CPU_is_or_a2 $end
$var reg 1 b" CPU_is_or_a3 $end
$var reg 1 c" CPU_is_ori_a2 $end
$var reg 1 d" CPU_is_ori_a3 $end
$var reg 1 e" CPU_is_s_instr_a2 $end
$var reg 1 f" CPU_is_s_instr_a3 $end
$var reg 1 g" CPU_is_s_instr_a4 $end
$var reg 1 h" CPU_is_sb_a2 $end
$var reg 1 i" CPU_is_sb_a3 $end
$var reg 1 j" CPU_is_sb_a4 $end
$var reg 1 k" CPU_is_sb_a5 $end
$var reg 1 l" CPU_is_sh_a2 $end
$var reg 1 m" CPU_is_sh_a3 $end
$var reg 1 n" CPU_is_sh_a4 $end
$var reg 1 o" CPU_is_sh_a5 $end
$var reg 1 p" CPU_is_sll_a2 $end
$var reg 1 q" CPU_is_sll_a3 $end
$var reg 1 r" CPU_is_slli_a2 $end
$var reg 1 s" CPU_is_slli_a3 $end
$var reg 1 t" CPU_is_slt_a2 $end
$var reg 1 u" CPU_is_slt_a3 $end
$var reg 1 v" CPU_is_slti_a2 $end
$var reg 1 w" CPU_is_slti_a3 $end
$var reg 1 x" CPU_is_sltiu_a2 $end
$var reg 1 y" CPU_is_sltiu_a3 $end
$var reg 1 z" CPU_is_sltu_a2 $end
$var reg 1 {" CPU_is_sltu_a3 $end
$var reg 1 |" CPU_is_sra_a2 $end
$var reg 1 }" CPU_is_sra_a3 $end
$var reg 1 ~" CPU_is_srai_a2 $end
$var reg 1 !# CPU_is_srai_a3 $end
$var reg 1 "# CPU_is_srl_a2 $end
$var reg 1 ## CPU_is_srl_a3 $end
$var reg 1 $# CPU_is_srli_a2 $end
$var reg 1 %# CPU_is_srli_a3 $end
$var reg 1 &# CPU_is_sub_a2 $end
$var reg 1 '# CPU_is_sub_a3 $end
$var reg 1 (# CPU_is_sw_a2 $end
$var reg 1 )# CPU_is_sw_a3 $end
$var reg 1 *# CPU_is_sw_a4 $end
$var reg 1 +# CPU_is_sw_a5 $end
$var reg 1 ,# CPU_is_xor_a2 $end
$var reg 1 -# CPU_is_xor_a3 $end
$var reg 1 .# CPU_is_xori_a2 $end
$var reg 1 /# CPU_is_xori_a3 $end
$var reg 32 0# CPU_jalr_tgt_pc_a3 [31:0] $end
$var reg 32 1# CPU_pc_a1 [31:0] $end
$var reg 32 2# CPU_pc_a2 [31:0] $end
$var reg 32 3# CPU_pc_a3 [31:0] $end
$var reg 5 4# CPU_rd_a2 [4:0] $end
$var reg 5 5# CPU_rd_a3 [4:0] $end
$var reg 5 6# CPU_rd_a4 [4:0] $end
$var reg 5 7# CPU_rd_a5 [4:0] $end
$var reg 1 8# CPU_rd_valid_a2 $end
$var reg 1 9# CPU_rd_valid_a3 $end
$var reg 1 :# CPU_rd_valid_a4 $end
$var reg 1 ;# CPU_reset_a1 $end
$var reg 1 <# CPU_reset_a2 $end
$var reg 1 =# CPU_reset_a3 $end
$var reg 1 ># CPU_reset_a4 $end
$var reg 4 ?# CPU_result_a4 [5:2] $end
$var reg 5 @# CPU_rs1_a2 [4:0] $end
$var reg 1 A# CPU_rs1_valid_a2 $end
$var reg 5 B# CPU_rs2_a2 [4:0] $end
$var reg 1 C# CPU_rs2_valid_a2 $end
$var reg 32 D# CPU_src1_value_a3 [31:0] $end
$var reg 32 E# CPU_src2_value_a3 [31:0] $end
$var reg 32 F# CPU_src2_value_a4 [31:0] $end
$var reg 1 G# CPU_valid_a4 $end
$var reg 1 H# CPU_valid_jump_a4 $end
$var reg 1 I# CPU_valid_jump_a5 $end
$var reg 1 J# CPU_valid_load_a4 $end
$var reg 1 K# CPU_valid_load_a5 $end
$var reg 1 L# CPU_valid_taken_br_a4 $end
$var reg 1 M# CPU_valid_taken_br_a5 $end
$var reg 10 N# out [9:0] $end
$scope begin L1_CPU_Dmem[0] $end
$var wire 1 O# L1_wr_a4 $end
$upscope $end
$scope begin L1_CPU_Dmem[1] $end
$var wire 1 P# L1_wr_a4 $end
$upscope $end
$scope begin L1_CPU_Dmem[2] $end
$var wire 1 Q# L1_wr_a4 $end
$upscope $end
$scope begin L1_CPU_Dmem[3] $end
$var wire 1 R# L1_wr_a4 $end
$upscope $end
$scope begin L1_CPU_Dmem[4] $end
$var wire 1 S# L1_wr_a4 $end
$upscope $end
$scope begin L1_CPU_Dmem[5] $end
$var wire 1 T# L1_wr_a4 $end
$upscope $end
$scope begin L1_CPU_Dmem[6] $end
$var wire 1 U# L1_wr_a4 $end
$upscope $end
$scope begin L1_CPU_Dmem[7] $end
$var wire 1 V# L1_wr_a4 $end
$upscope $end
$scope begin L1_CPU_Dmem[8] $end
$var wire 1 W# L1_wr_a4 $end
$upscope $end
$scope begin L1_CPU_Dmem[9] $end
$var wire 1 X# L1_wr_a4 $end
$upscope $end
$scope begin L1_CPU_Dmem[10] $end
$var wire 1 Y# L1_wr_a4 $end
$upscope $end
$scope begin L1_CPU_Dmem[11] $end
$var wire 1 Z# L1_wr_a4 $end
$upscope $end
$scope begin L1_CPU_Dmem[12] $end
$var wire 1 [# L1_wr_a4 $end
$upscope $end
$scope begin L1_CPU_Dmem[13] $end
$var wire 1 \# L1_wr_a4 $end
$upscope $end
$scope begin L1_CPU_Dmem[14] $end
$var wire 1 ]# L1_wr_a4 $end
$upscope $end
$scope begin L1_CPU_Dmem[15] $end
$var wire 1 ^# L1_wr_a4 $end
$upscope $end
$scope begin L1_CPU_Imem[0] $end
$upscope $end
$scope begin L1_CPU_Imem[1] $end
$upscope $end
$scope begin L1_CPU_Imem[2] $end
$upscope $end
$scope begin L1_CPU_Imem[3] $end
$upscope $end
$scope begin L1_CPU_Imem[4] $end
$upscope $end
$scope begin L1_CPU_Imem[5] $end
$upscope $end
$scope begin L1_CPU_Imem[6] $end
$upscope $end
$scope begin L1_CPU_Imem[7] $end
$upscope $end
$scope begin L1_CPU_Imem[8] $end
$upscope $end
$scope begin L1_CPU_Imem[9] $end
$upscope $end
$scope begin L1_CPU_Imem[10] $end
$upscope $end
$scope begin L1_CPU_Imem[11] $end
$upscope $end
$scope begin L1_CPU_Xreg[0] $end
$var wire 1 _# L1_wr_a3 $end
$upscope $end
$scope begin L1_CPU_Xreg[1] $end
$var wire 1 `# L1_wr_a3 $end
$upscope $end
$scope begin L1_CPU_Xreg[2] $end
$var wire 1 a# L1_wr_a3 $end
$upscope $end
$scope begin L1_CPU_Xreg[3] $end
$var wire 1 b# L1_wr_a3 $end
$upscope $end
$scope begin L1_CPU_Xreg[4] $end
$var wire 1 c# L1_wr_a3 $end
$upscope $end
$scope begin L1_CPU_Xreg[5] $end
$var wire 1 d# L1_wr_a3 $end
$upscope $end
$scope begin L1_CPU_Xreg[6] $end
$var wire 1 e# L1_wr_a3 $end
$upscope $end
$scope begin L1_CPU_Xreg[7] $end
$var wire 1 f# L1_wr_a3 $end
$upscope $end
$scope begin L1_CPU_Xreg[8] $end
$var wire 1 g# L1_wr_a3 $end
$upscope $end
$scope begin L1_CPU_Xreg[9] $end
$var wire 1 h# L1_wr_a3 $end
$upscope $end
$scope begin L1_CPU_Xreg[10] $end
$var wire 1 i# L1_wr_a3 $end
$upscope $end
$scope begin L1_CPU_Xreg[11] $end
$var wire 1 j# L1_wr_a3 $end
$upscope $end
$scope begin L1_CPU_Xreg[12] $end
$var wire 1 k# L1_wr_a3 $end
$upscope $end
$scope begin L1_CPU_Xreg[13] $end
$var wire 1 l# L1_wr_a3 $end
$upscope $end
$scope begin L1_CPU_Xreg[14] $end
$var wire 1 m# L1_wr_a3 $end
$upscope $end
$scope begin L1_CPU_Xreg[15] $end
$var wire 1 n# L1_wr_a3 $end
$upscope $end
$scope begin L1_CPU_Xreg[16] $end
$var wire 1 o# L1_wr_a3 $end
$upscope $end
$scope begin L1_CPU_Xreg[17] $end
$var wire 1 p# L1_wr_a3 $end
$upscope $end
$scope begin L1_CPU_Xreg[18] $end
$var wire 1 q# L1_wr_a3 $end
$upscope $end
$scope begin L1_CPU_Xreg[19] $end
$var wire 1 r# L1_wr_a3 $end
$upscope $end
$scope begin L1_CPU_Xreg[20] $end
$var wire 1 s# L1_wr_a3 $end
$upscope $end
$scope begin L1_CPU_Xreg[21] $end
$var wire 1 t# L1_wr_a3 $end
$upscope $end
$scope begin L1_CPU_Xreg[22] $end
$var wire 1 u# L1_wr_a3 $end
$upscope $end
$scope begin L1_CPU_Xreg[23] $end
$var wire 1 v# L1_wr_a3 $end
$upscope $end
$scope begin L1_CPU_Xreg[24] $end
$var wire 1 w# L1_wr_a3 $end
$upscope $end
$scope begin L1_CPU_Xreg[25] $end
$var wire 1 x# L1_wr_a3 $end
$upscope $end
$scope begin L1_CPU_Xreg[26] $end
$var wire 1 y# L1_wr_a3 $end
$upscope $end
$scope begin L1_CPU_Xreg[27] $end
$var wire 1 z# L1_wr_a3 $end
$upscope $end
$scope begin L1_CPU_Xreg[28] $end
$var wire 1 {# L1_wr_a3 $end
$upscope $end
$scope begin L1_CPU_Xreg[29] $end
$var wire 1 |# L1_wr_a3 $end
$upscope $end
$scope begin L1_CPU_Xreg[30] $end
$var wire 1 }# L1_wr_a3 $end
$upscope $end
$scope begin L1_CPU_Xreg[31] $end
$var wire 1 ~# L1_wr_a3 $end
$upscope $end
$scope begin L1gen_CPU_Dmem[0] $end
$upscope $end
$scope begin L1gen_CPU_Dmem[1] $end
$upscope $end
$scope begin L1gen_CPU_Dmem[2] $end
$upscope $end
$scope begin L1gen_CPU_Dmem[3] $end
$upscope $end
$scope begin L1gen_CPU_Dmem[4] $end
$upscope $end
$scope begin L1gen_CPU_Dmem[5] $end
$upscope $end
$scope begin L1gen_CPU_Dmem[6] $end
$upscope $end
$scope begin L1gen_CPU_Dmem[7] $end
$upscope $end
$scope begin L1gen_CPU_Dmem[8] $end
$upscope $end
$scope begin L1gen_CPU_Dmem[9] $end
$upscope $end
$scope begin L1gen_CPU_Dmem[10] $end
$upscope $end
$scope begin L1gen_CPU_Dmem[11] $end
$upscope $end
$scope begin L1gen_CPU_Dmem[12] $end
$upscope $end
$scope begin L1gen_CPU_Dmem[13] $end
$upscope $end
$scope begin L1gen_CPU_Dmem[14] $end
$upscope $end
$scope begin L1gen_CPU_Dmem[15] $end
$upscope $end
$scope begin L1gen_CPU_Xreg[0] $end
$upscope $end
$scope begin L1gen_CPU_Xreg[1] $end
$upscope $end
$scope begin L1gen_CPU_Xreg[2] $end
$upscope $end
$scope begin L1gen_CPU_Xreg[3] $end
$upscope $end
$scope begin L1gen_CPU_Xreg[4] $end
$upscope $end
$scope begin L1gen_CPU_Xreg[5] $end
$upscope $end
$scope begin L1gen_CPU_Xreg[6] $end
$upscope $end
$scope begin L1gen_CPU_Xreg[7] $end
$upscope $end
$scope begin L1gen_CPU_Xreg[8] $end
$upscope $end
$scope begin L1gen_CPU_Xreg[9] $end
$upscope $end
$scope begin L1gen_CPU_Xreg[10] $end
$upscope $end
$scope begin L1gen_CPU_Xreg[11] $end
$upscope $end
$scope begin L1gen_CPU_Xreg[12] $end
$upscope $end
$scope begin L1gen_CPU_Xreg[13] $end
$upscope $end
$scope begin L1gen_CPU_Xreg[14] $end
$upscope $end
$scope begin L1gen_CPU_Xreg[15] $end
$upscope $end
$scope begin L1gen_CPU_Xreg[16] $end
$upscope $end
$scope begin L1gen_CPU_Xreg[17] $end
$upscope $end
$scope begin L1gen_CPU_Xreg[18] $end
$upscope $end
$scope begin L1gen_CPU_Xreg[19] $end
$upscope $end
$scope begin L1gen_CPU_Xreg[20] $end
$upscope $end
$scope begin L1gen_CPU_Xreg[21] $end
$upscope $end
$scope begin L1gen_CPU_Xreg[22] $end
$upscope $end
$scope begin L1gen_CPU_Xreg[23] $end
$upscope $end
$scope begin L1gen_CPU_Xreg[24] $end
$upscope $end
$scope begin L1gen_CPU_Xreg[25] $end
$upscope $end
$scope begin L1gen_CPU_Xreg[26] $end
$upscope $end
$scope begin L1gen_CPU_Xreg[27] $end
$upscope $end
$scope begin L1gen_CPU_Xreg[28] $end
$upscope $end
$scope begin L1gen_CPU_Xreg[29] $end
$upscope $end
$scope begin L1gen_CPU_Xreg[30] $end
$upscope $end
$scope begin L1gen_CPU_Xreg[31] $end
$upscope $end
$scope module gen_clkP_CPU_dmem_rd_en_a5 $end
$var wire 1 !$ func_en $end
$var wire 1 M gated_clk $end
$var wire 1 "$ gating_override $end
$var wire 1 . pwr_en $end
$var wire 1 , free_clk $end
$upscope $end
$scope module gen_clkP_CPU_rd_valid_a2 $end
$var wire 1 #$ func_en $end
$var wire 1 L gated_clk $end
$var wire 1 $$ gating_override $end
$var wire 1 9 pwr_en $end
$var wire 1 , free_clk $end
$upscope $end
$scope module gen_clkP_CPU_rd_valid_a3 $end
$var wire 1 %$ func_en $end
$var wire 1 K gated_clk $end
$var wire 1 &$ gating_override $end
$var wire 1 8# pwr_en $end
$var wire 1 , free_clk $end
$upscope $end
$scope module gen_clkP_CPU_rd_valid_a4 $end
$var wire 1 '$ func_en $end
$var wire 1 J gated_clk $end
$var wire 1 ($ gating_override $end
$var wire 1 9# pwr_en $end
$var wire 1 , free_clk $end
$upscope $end
$scope module gen_clkP_CPU_rd_valid_a5 $end
$var wire 1 )$ func_en $end
$var wire 1 I gated_clk $end
$var wire 1 *$ gating_override $end
$var wire 1 :# pwr_en $end
$var wire 1 , free_clk $end
$upscope $end
$scope module gen_clkP_CPU_rs1_valid_a2 $end
$var wire 1 +$ func_en $end
$var wire 1 H gated_clk $end
$var wire 1 ,$ gating_override $end
$var wire 1 B pwr_en $end
$var wire 1 , free_clk $end
$upscope $end
$scope module gen_clkP_CPU_rs2_valid_a2 $end
$var wire 1 -$ func_en $end
$var wire 1 G gated_clk $end
$var wire 1 .$ gating_override $end
$var wire 1 C pwr_en $end
$var wire 1 , free_clk $end
$upscope $end
$upscope $end
$scope module dac $end
$var wire 10 /$ D [9:0] $end
$var wire 1 0$ EN $end
$var wire 11 1$ Dext [10:0] $end
$var real 1 2$ NaN $end
$var real 1 3$ OUT $end
$var real 1 4$ VREFH $end
$var real 1 5$ VREFL $end
$upscope $end
$scope module pll $end
$var wire 1 ! ENb_CP $end
$var wire 1 " ENb_VCO $end
$var wire 1 # REF $end
$var wire 1 $ VCO_IN $end
$var reg 1 , CLK $end
$var real 1 6$ lastedge $end
$var real 1 7$ period $end
$var real 1 8$ refpd $end
$upscope $end
$upscope $end
$upscope $end
$enddefinitions $end
#0
$dumpvars
r0 8$
r25 7$
r0 6$
r0 5$
r1 4$
r0 3$
rnan 2$
b0xxxxxxxxxx 1$
10$
bx /$
0.$
1-$
0,$
1+$
0*$
1)$
0($
1'$
0&$
1%$
0$$
1#$
0"$
1!$
x~#
x}#
x|#
x{#
xz#
xy#
xx#
xw#
xv#
xu#
xt#
xs#
xr#
xq#
xp#
xo#
xn#
xm#
xl#
xk#
xj#
xi#
xh#
xg#
xf#
xe#
xd#
xc#
xb#
xa#
x`#
x_#
x^#
x]#
x\#
x[#
xZ#
xY#
xX#
xW#
xV#
xU#
xT#
xS#
xR#
xQ#
xP#
xO#
bx N#
xM#
xL#
xK#
xJ#
xI#
xH#
xG#
bx F#
bx E#
bx D#
xC#
bx B#
xA#
bx @#
bx ?#
x>#
x=#
x<#
x;#
x:#
x9#
x8#
bx 7#
bx 6#
bx 5#
bx 4#
bx 3#
bx 2#
bx 1#
bx 0#
x/#
x.#
x-#
x,#
x+#
x*#
x)#
x(#
x'#
x&#
x%#
x$#
x##
x"#
x!#
x~"
x}"
x|"
x{"
xz"
xy"
xx"
xw"
xv"
xu"
xt"
xs"
xr"
xq"
xp"
xo"
xn"
xm"
xl"
xk"
xj"
xi"
xh"
xg"
xf"
xe"
xd"
xc"
xb"
xa"
x`"
x_"
x^"
x]"
x\"
x["
xZ"
xY"
xX"
xW"
xV"
xU"
xT"
xS"
xR"
xQ"
xP"
xO"
xN"
xM"
xL"
xK"
xJ"
xI"
xH"
xG"
xF"
xE"
xD"
xC"
xB"
xA"
x@"
x?"
x>"
x="
x<"
x;"
x:"
x9"
x8"
x7"
x6"
x5"
bx 4"
bx 3"
bx 2"
bx 1"
x0"
bx /"
bx ."
bx -"
bx ,"
bx +"
bx *"
bx )"
bx ("
bx '"
b0xxxx &"
bx %"
1$"
bx #"
bx ""
x!"
x~
x}
x|
x{
xz
xy
xx
xw
xv
xu
xt
xs
xr
xq
xp
xo
xn
xm
xl
xk
xj
xi
xh
xg
xf
xe
xd
xc
xb
xa
x`
x_
x^
x]
bx \
bx [
bx Z
bx Y
bx X
bx W
bx V
bx U
bx T
xS
xR
bx Q
bx P
xO
xN
0M
0L
0K
0J
0I
0H
0G
xF
xE
xD
xC
xB
xA
bx @
bx ?
x>
x=
bx <
bx ;
0:
x9
bx 8
x7
x6
x5
x4
x3
bx 2
x1
x0
x/
x.
bx -
0,
0+
bx *
1)
r0 (
r0 '
r3.3 &
0%
0$
0#
1"
x!
$end
#12500
b0xxxx /"
10"
0;#
1G
1H
1I
1J
1K
1L
1M
1,
#20000
0$"
1:
1%
#25000
0G
0H
0I
0J
0K
0L
0M
0,
#37500
b0 &"
b0 Z
0<#
1;#
00"
1G
1H
1I
1J
1K
1L
1M
1,
#50000
0G
0H
0I
0J
0K
0L
0M
0,
#62500
1B
19
10
03
1C
11
15
04
07
06
b0 #"
1!"
0`
0y
0t
0v
0x
0u
0w
0~
0m
0]
0|
0g
0f
0p
0l
0k
0_
0o
0{
0r
0q
0z
0s
b0 T
b0 U
b1110 Y
0n
0^
0}
0j
0h
0e
0b
0d
b0 ("
b0 '"
0i
0a
0c
b110011 +"
b110011 [
b11100110011 2
b11100110011 %"
b0 /"
b100 ""
b0 1#
1<#
0=#
1G
1H
1I
1J
1K
1L
1M
1,
#75000
0G
0H
0I
0J
0K
0L
0M
0,
#87500
b0 @
b0 B#
b0 ?
b0 @#
b1110 4#
1>
1C#
1=
1A#
0>#
1=#
18#
b0 ,"
b0 2#
0.#
0,#
0(#
0&#
0$#
0"#
0~"
0|"
0z"
0x"
0v"
0t"
0r"
0p"
0l"
0h"
0e"
0c"
0a"
0_"
0]"
0["
0Y"
0W"
0S"
0O"
0K"
0G"
0C"
0?"
0="
0;"
09"
07"
15"
b100 3"
b0 1"
1G
1H
1I
1J
1K
1L
1M
1,
#100000
0G
0H
0I
0J
0K
0L
0M
0,
r100 6$
1#
#112500
0F
0O
b0 \
b0 Q
b0 P
0D
0E
b1110 5#
b0 ;
b0 <
b0 -"
b0 2"
b100 4"
16"
08"
0:"
0<"
0>"
0@"
0D"
0H"
0L"
0P"
0T"
0X"
0Z"
0\"
0^"
0`"
0b"
0d"
0f"
0i"
0m"
0q"
0s"
0u"
0w"
0y"
0{"
0}"
0!#
0##
0%#
0'#
0)#
0-#
0/#
b0 3#
19#
1>#
1G
1H
1I
1J
1K
1L
1M
1,
#120000
1$"
0:
0%
#125000
0G
0H
0I
0J
0K
0L
0M
0,
#137500
b0 X
b1 &"
0O#
0P#
0Q#
0R#
0S#
0T#
0U#
0V#
0W#
0X#
0Y#
0Z#
0[#
0\#
0]#
0^#
b100 Z
0/
b1110 6#
0L#
0.
0J#
0H#
0R
b0 E#
0S
b0 D#
0;#
1:#
b0 0#
0*#
0n"
0j"
0g"
0U"
0Q"
0M"
0I"
0E"
0A"
10"
1G
1H
1I
1J
1K
1L
1M
1,
#141665
1$
#150000
0G
0H
0I
0J
0K
0L
0M
0,
#162500
1m#
1A
19
b101100 #"
0C
b10 &"
b0 W
13
b1000 Z
1N
01
05
1~
0_#
0`#
0a#
0b#
0c#
0d#
0e#
0f#
0g#
0h#
0i#
0j#
0k#
0l#
0n#
0o#
0p#
0q#
0r#
0s#
0t#
0u#
0v#
0w#
0x#
0y#
0z#
0{#
0|#
0}#
0~#
b1100 T
b1100 Y
b1 '"
0!"
b10011 +"
b10011 [
b1110 V
b10110000000000011000010011 2
b10110000000000011000010011 %"
b1110 7#
b1 /"
0B"
0F"
0J"
0N"
0R"
0V"
0k"
0o"
0+#
b1000 ""
b100 1#
0<#
b0 -
b0 *"
b0 ?#
b0 )"
b0 F#
0I#
0K#
0M#
r0.0136852394916911 3$
b1110 1$
b1110 *
b1110 N#
b1110 /$
1G
1H
1I
1J
1K
1L
1M
1,
#175000
0G
0H
0I
0J
0K
0L
0M
0,
#187500
b11 &"
1C
b1100 Z
03
11
15
b0 #"
0~
b0 T
b1101 Y
b0 '"
1!"
b110011 +"
b110011 [
b1100 P
b11010110011 2
b11010110011 %"
b1100 <
b1100 @
b1100 B#
b1100 4#
b0 8
b0 ."
1G#
0>
0C#
0=#
b100 2#
b1100 ""
b1000 1#
17"
05"
b1000 3"
b110000 ,"
b101100 \
b101100 1"
b10 /"
1G
1H
1I
1J
1K
1L
1M
1,
#200000
0G
0H
0I
0J
0K
0L
0M
0,
#212500
b100 &"
b10000 Z
b101100 W
1k#
0m#
b1110 T
b1101 U
b1110 Y
b101100 X
b0 P
b1100 V
b111001101000011100110011 2
b111001101000011100110011 %"
b0 <
b0 @
b0 B#
b1100 5#
b1101 4#
b110000 -"
b11 /"
b0 \
b0 1"
1S
b101100 2"
b1100 3"
b1000 4"
15"
06"
07"
18"
b101100 0#
b10000 ""
b1100 1#
b1000 ,"
b1000 2#
b100 3#
0>#
1>
1C#
1R
b1100 E#
1G
1H
1I
1J
1K
1L
1M
1,
#225000
0G
0H
0I
0J
0K
0L
0M
0,
